[gd_resource type="StyleBoxTexture" load_steps=2 format=2]

[ext_resource path="res://screens/assets/enter_nickname_text_box.png" type="Texture" id=1]

[resource]
content_margin_left = 25.0
texture = ExtResource( 1 )
region_rect = Rect2( 0, 0, 1042, 258 )
