{
	"id": "12",
	"title": "Bar",
	"desc": "Si discute della mamma di Andrea e della sua nuova mostra.",
	"reputation_needed": 0,
	"reputation_reward": 1,
	"exp_needed": 0,
	"max_exp_reward": 4,

	"questions": [

		{
			"id": "1",
			"text": "Hai saputo che la mamma di Andrea fa una mostra?",
			"is_first": 1,
			"conversation_id": "12",

			"answers": [

				{
					"id": "1",
					"text": "Di torte?",
					"points": 1,
					"question_id": "1",
					"next_question_id": "2"
				},

				{
					"id": "2",
					"text": "Dei suoi tanti anelli?",
					"points": 0,
					"question_id": "1",
					"next_question_id": "2"
				},

				{
					"id": "3",
					"text": "Di cosa?",
					"points": 1,
					"question_id": "1",
					"next_question_id": "2"
				},

				{
					"id": "4",
					"text": "Ma come non è sempre impegnata con i bimbi?",
					"points": 0,
					"question_id": "1",
					"next_question_id": "2"
				}
			]
		},

		{
			"id": "2",
			"text": "Fa una mostra di quadri!",
			"is_first": 0,
			"conversation_id": "12",

			"answers": [

				{
					"id": "1",
					"text": "Di quale pittore?",
					"points": 1,
					"question_id": "2",
					"next_question_id": "3"
				},

				{
					"id": "2",
					"text": "Di che genere?",
					"points": 2,
					"question_id": 2,
					"next_question_id": "3"
				},

				{
					"id": "3",
					"text": "Non posso crederci pensavo che fosse sempre a casa",
					"points": 0,
					"question_id": "2",
					"next_question_id": ""
				},

				{
					"id": "4",
					"text": "Ha una galleria?",
					"points": 1,
					"question_id": "2",
					"next_question_id": "3b"
				}
			]
		},

		{
			"id": "3",
			"text": "I quadri sono suoi! È una pittrice!",
			"alt_text": "Non ha una galleria, ma i quadri sono i suoi! È una pittrice!",
			"is_first": 0,
			"conversation_id": "12",

			"answers": [

				{
					"id": "1",
					"text": "Stai scherzando?",
					"points": 0,
					"question_id": "",
					"next_question_id": ""
				},

				{
					"id": "2",
					"text": "Ma dai non è possibile i pittori sono solo uomini",
					"points": 0,
					"question_id": "",
					"next_question_id": ""
				},

				{
					"id": "3",
					"text": "Davvero? Sapevo che era brava solo a cucinare!",
					"points": 0,
					"question_id": "",
					"next_question_id": "4"
				},

				{
					"id": "4",
					"text": "E cosa dipinge?",
					"points": 1,
					"question_id": 3,
					"next_question_id": "4"
				}
			]
		},

		{
			"id": "4",
			"text": "Prova a indovinare…",
			"is_first": 0,
			"conversation_id": "12",

			"answers": [

				{
					"id": "1",
					"text": "Fiori rosa?",
					"points": 0,
					"question_id": "4",
					"next_question_id": ""
				},

				{
					"id": "2",
					"text": "Ballerine?",
					"points": 0,
					"question_id": "4",
					"next_question_id": ""
				},

				{
					"id": "3",
					"text": "Forme geometriche",
					"points": 2,
					"question_id": "4",
					"next_question_id": "5"
				},

				{
					"id": "4",
					"text": "Ritratti",
					"points": 1,
					"question_id": "4",
					"next_question_id": ""
				}
			]
		},

		{
			"id": "5",
			"text": "Proprio forme geometrice, come hai indovinato",
			"is_first": 0,
			"conversation_id": "12",

			"answers": [

				{
					"id": "1",
					"text": "Ho detto la cosa più assurda per una donna",
					"points": 0,
					"question_id": "5",
					"next_question_id": ""
				},

				{
					"id": "2",
					"text": "Ho tirato a caso",
					"points": 0,
					"question_id": 5,
					"next_question_id": ""
				},

				{
					"id": "3",
					"text": "Ricordavo fosse molto brava in matematica",
					"points": 1,
					"question_id": "5",
					"next_question_id": ""
				},

				{
					"id": "4",
					"text": "Ricordavo che fosse una docente di matamatica",
					"points": 1,
					"question_id": "5",
					"next_question_id": ""
				}
			]
		},

		{
			"id": "6",
			"text": "Si, infatti insegnava matematica ma poi ha smesso perché si é appassionata alla pittura",
			"is_first": 0,
			"conversation_id": "12",

			"answers": [

				{
					"id": "1",
					"text": "Chissà se arriva a fine mese così",
					"points": 0,
					"question_id": "6",
					"next_question_id": ""
				},

				{
					"id": "2",
					"text": "Forse ha un marito ricco",
					"points": 1,
					"question_id": "6",
					"next_question_id": ""
				},

				{
					"id": "3",
					"text": "Molto coraggiosa",
					"points": 1,
					"question_id": "6",
					"next_question_id": ""
				},

				{
					"id": "4",
					"text": "Fa bene a seguire le sue passioni",
					"points": 2,
					"question_id": "6",
					"next_question_id": ""
				}
			]

		}
	]
}