{
	"id": "10",
	"title": "Cena di gala",
	"desc": "Durante una cena gale, al tuo tavolo si discute delle notizie sul ritorno della Cristoforetti nello spazio per una nuova missione.",
	"reputation_needed": 0,
	"reputation_reward": 1,
	"exp_needed": 0,
	"max_exp_reward": 4,

	"questions": [

		{
			"id": "1",
			"text": "un tizio leggendo il giornale dice: Che poi dico lasciare i figli a terra per andare nello spazio non mi sembra un comportamento da mamma!",
			"is_first": 1,
			"conversation_id": "10",

			"answers": [

				{
					"id": "1",
					"text": "Mia mamma non lo farebbe mai",
					"points": 0,
					"question_id": "1",
					"next_question_id": "2"
				},

				{
					"id": "2",
					"text": "Non è naturale per una madre trascurare i figli per la carriera.",
					"points": 0,
					"question_id": "1",
					"next_question_id": "2"
				},

				{
					"id": "3",
					"text": "Non vedo il problema",
					"points": 1,
					"question_id": "1",
					"next_question_id": "2b"
				},

				{
					"id": "4",
					"text": "Avresti detto la stessa cosa nel caso di un padre di famiglia?",
					"points": 1,
					"question_id": "1",
					"next_question_id": "2b"
				}
			]
		},

		{
			"id": "2",
			"text": "ma poi chi sta con i bambini?",
			"alt_text": "il problema sono i bambini che rimangono da soli.",
			"is_first": 0,
			"conversation_id": "10",

			"answers": [

				{
					"id": "1",
					"text": "Avrà almeno lasciato un post-it sul frigorifero con delle istruzioni!",
					"points": 0,
					"question_id": "2",
					"next_question_id": "3"
				},

				{
					"id": "2",
					"text": "Poveri bambini, chissà se se la caveranno?",
					"points": 0,
					"question_id": 2,
					"next_question_id": "3"
				},

				{
					"id": "3",
					"text": "Hanno un padre!",
					"points": 1,
					"question_id": "2",
					"next_question_id": "4"
				},

				{
					"id": "4",
					"text": "Sicuramente avranno altri adulti di riferimento con cui stare.",
					"points": 1,
					"question_id": "2",
					"next_question_id": "4"
				}
			]
		},

		{
			"id": "3",
			"text": "Che poi mancherà da casa per moltissimo tempo.",
			"is_first": 0,
			"conversation_id": "10",

			"answers": [

				{
					"id": "1",
					"text": "\"Con tono ironico\": Avranno scorte sufficienti?",
					"points": 0,
					"question_id": "3",
					"next_question_id": ""
				},

				{
					"id": "2",
					"text": "Chi cucinerà per i bimbi?",
					"points": 0,
					"question_id": "3",
					"next_question_id": ""
				},

				{
					"id": "3",
					"text": "Sono sicuro che, in questi mesi, qualche adulto si occuperà di loro e poi c'è la tecnologia: avranno modo telefoneranno alla madre!",
					"points": 1,
					"question_id": "3",
					"next_question_id": "4"
				},

				{
					"id": "4",
					"text": "Come tante altri adulti che lavorano lontano da casa!",
					"points": 1,
					"question_id": 3,
					"next_question_id": "4"
				}
			]
		},

		{
			"id": "4",
			"text": "Okay, ma mancherà da casa per almeno 6 mesi.",
			"is_first": 0,
			"conversation_id": "10",

			"answers": [

				{
					"id": "1",
					"text": "Non ci avevo pensato, poveri bambini!",
					"points": 0,
					"question_id": "4",
					"next_question_id": ""
				},

				{
					"id": "2",
					"text": "Non ha proprio l'istinto materno!",
					"points": 0,
					"question_id": "4",
					"next_question_id": ""
				},

				{
					"id": "3",
					"text": "Nel mentre sicuramente si sentiranno con tecnologie all'avanguardia! Basterebbe uno smartphone!",
					"points": 1,
					"question_id": "4",
					"next_question_id": "5"
				},

				{
					"id": "4",
					"text": "probabile che sentiranno una mancanza reciproca, ma nel frattempo si sentiranno in un altro modo e poi, dopo 6 mesi, torna a casa!",
					"points": 2,
					"question_id": "4",
					"next_question_id": "5"
				}
			]
		},

		{
			"id": "5",
			"text": "Poteva far qualcosa a terra.",
			"is_first": 0,
			"conversation_id": "10",

			"answers": [

				{
					"id": "1",
					"text": "Effettivamente ci sono anche ruoli a terra.",
					"points": 0,
					"question_id": "5",
					"next_question_id": ""
				},

				{
					"id": "2",
					"text": "Così avrebbe conciliato famiglia e lavoro.",
					"points": 0,
					"question_id": 5,
					"next_question_id": ""
				},

				{
					"id": "3",
					"text": "Quindi, secondo te solo persone senza figli possono andare nello spazio?",
					"points": 1,
					"question_id": "5",
					"next_question_id": "6"
				},

				{
					"id": "4",
					"text": "Quindi, secondo te le persone devono scegliere tra famiglia e lavoro?",
					"points": 1,
					"question_id": "5",
					"next_question_id": "6"
				}
			]
		},

		{
			"id": "6",
			"text": "Ma lei è una donna.",
			"is_first": 0,
			"conversation_id": "10",

			"answers": [

				{
					"id": "1",
					"text": "Effettivamente è più frequente per un uomo stare fuori casa a lungo.",
					"points": 0,
					"question_id": "6",
					"next_question_id": ""
				},

				{
					"id": "2",
					"text": "Effettivamente, di solito, sono gli uomini a stare fuori casa.",
					"points": 1,
					"question_id": "6",
					"next_question_id": ""
				},

				{
					"id": "3",
					"text": "è assolutamente indifferente che sia uomo o donna, l'importante è che ci si organizzi con altri adulti di riferimento.",
					"points": 1,
					"question_id": "6",
					"next_question_id": ""
				},

				{
					"id": "4",
					"text": "Maschilista.",
					"points": 1,
					"question_id": "6",
					"next_question_id": ""
				}
			]

		}
	]
}