[gd_scene load_steps=8 format=2]

[ext_resource path="res://ui/ReputationLvlBar.gd" type="Script" id=1]
[ext_resource path="res://ui/assets/tile_level.png" type="Texture" id=2]
[ext_resource path="res://ui/assets/progress_bar_level.png" type="Texture" id=3]
[ext_resource path="res://fonts/atten_extra_bold.tres" type="DynamicFont" id=4]
[ext_resource path="res://fonts/AttenNewExtraBold.otf" type="DynamicFontData" id=5]

[sub_resource type="StyleBoxFlat" id=1]
bg_color = Color( 0.6, 0.6, 0.6, 0 )

[sub_resource type="DynamicFont" id=2]
size = 30
use_mipmaps = true
use_filter = true
font_data = ExtResource( 5 )

[node name="ReputationLvlBar" type="Panel"]
margin_left = 227.0
margin_right = 641.0
margin_bottom = 179.0
size_flags_horizontal = 3
size_flags_vertical = 3
custom_styles/panel = SubResource( 1 )
script = ExtResource( 1 )
__meta__ = {
"_edit_use_anchors_": false
}

[node name="TextureRect" type="TextureRect" parent="."]
margin_right = 477.0
margin_bottom = 179.0
texture = ExtResource( 2 )
__meta__ = {
"_edit_use_anchors_": false
}

[node name="ProgressBar" type="TextureProgress" parent="."]
margin_left = 77.0
margin_top = 63.0
margin_right = 355.0
margin_bottom = 94.0
max_value = 10.0
rounded = true
texture_progress = ExtResource( 3 )
__meta__ = {
"_edit_use_anchors_": false
}

[node name="LvlValue" type="Label" parent="."]
margin_left = 375.0
margin_top = 59.0
margin_right = 458.0
margin_bottom = 96.0
custom_fonts/font = SubResource( 2 )
text = "Lv. %s"
__meta__ = {
"_edit_use_anchors_": false
}

[node name="Title" type="Label" parent="."]
margin_left = 73.0
margin_top = 109.0
margin_right = 163.0
margin_bottom = 146.0
custom_fonts/font = ExtResource( 4 )
text = "Livello"
__meta__ = {
"_edit_use_anchors_": false
}
